{
  "kernels": [
    {
      "id": 61833229,
      "name": "Ubuntu 14.04 x32 vmlinuz-3.13.0-24-generic",
      "version": "3.13.0-24-generic"
    },
    {
      "id": 485432972,
      "name": "Ubuntu 14.04 x64 vmlinuz-3.13.0-24-generic (1221)",
      "version": "3.13.0-24-generic"
    }
  ],
  "links": {
    "pages": {
      "last": "https://api.digitalocean.com/v2/droplets/12345/kernels?page=2",
      "next": "https://api.digitalocean.com/v2/droplets/12345/kernels?page=2"
    }
  },
  "meta": {
    "total": 3
  }
}